scRNA-seq Analysis of PBMC 3k Dataset
…
Top markers per cluster

top10 <- pbmc.markers %>%
  group_by(cluster) %>%
  top_n(n = 10, wt = avg_log2FC)

top10

## # A tibble: 90 × 7
## # Groups:   cluster [9]
##        p_val avg_log2FC pct.1 pct.2 p_val_adj cluster gene     
##        <dbl>      <dbl> <dbl> <dbl>     <dbl> <fct>   <chr>    
##  1 6.26e-131       1.26 0.906 0.572 8.59e-127 0       LDHB     
##  2 3.31e-102       1.20 0.858 0.37  4.54e- 98 0       CD3D     
##  3 4.25e- 79       2.35 0.409 0.102 5.83e- 75 0       CCR7     
##  4 8.22e- 64       1.37 0.638 0.336 1.13e- 59 0       NOSIP    
##  5 1.24e- 52       2.16 0.33  0.097 1.70e- 48 0       PRKCQ-AS1
##  6 3.59e- 47       2.03 0.317 0.098 4.93e- 43 0       LEF1     
##  7 2.08e- 45       1.54 0.425 0.175 2.85e- 41 0       PIK3IP1  
##  8 5.93e- 34       1.34 0.373 0.171 8.13e- 30 0       TCF7     
##  9 4.39e- 28       1.21 0.362 0.172 6.03e- 24 0       RGCC     
## 10 7.78e- 25       1.20 0.429 0.245 1.07e- 20 0       C12orf57 
## # ℹ 80 more rows
…
